{
  "parent": "minecraft:recipes/root",
  "criteria": {
    "has_gunpowder": {
      "conditions": {
        "items": [
          {
            "items": [
              "minecraft:gunpowder"
            ]
          }
        ]
      },
      "trigger": "minecraft:inventory_changed"
    },
    "has_iron_ingot": {
      "conditions": {
        "items": [
          {
            "items": [
              "minecraft:iron_ingot"
            ]
          }
        ]
      },
      "trigger": "minecraft:inventory_changed"
    },
    "has_paper": {
      "conditions": {
        "items": [
          {
            "items": [
              "minecraft:paper"
            ]
          }
        ]
      },
      "trigger": "minecraft:inventory_changed"
    },
    "has_the_recipe": {
      "conditions": {
        "recipe": "alekiships:crafting/cannonball"
      },
      "trigger": "minecraft:recipe_unlocked"
    }
  },
  "requirements": [
    [
      "has_iron_ingot",
      "has_paper",
      "has_gunpowder",
      "has_the_recipe"
    ]
  ],
  "rewards": {
    "recipes": [
      "alekiships:crafting/cannonball"
    ]
  },
  "sends_telemetry_event": false
}