{
  "multipart": [
    {
      "apply": {
        "model": "alekiships:block/watercraft_frame/flat/frame"
      }
    },
    {
      "apply": {
        "model": "alekiships:block/wood/watercraft_frame/flat/crimson/first"
      },
      "when": {
        "frame_processed": "0|1|2|3"
      }
    },
    {
      "apply": {
        "model": "alekiships:block/wood/watercraft_frame/flat/crimson/second"
      },
      "when": {
        "frame_processed": "1|2|3"
      }
    },
    {
      "apply": {
        "model": "alekiships:block/wood/watercraft_frame/flat/crimson/third"
      },
      "when": {
        "frame_processed": "2|3"
      }
    },
    {
      "apply": {
        "model": "alekiships:block/wood/watercraft_frame/flat/crimson/fourth"
      },
      "when": {
        "frame_processed": "3"
      }
    }
  ]
}