{
  "type": "minecraft:chest",
  "pools": [
    {
      "bonus_rolls": 0.0,
      "entries": [
        {
          "type": "minecraft:item",
          "name": "minecraft:mangrove_planks"
        }
      ],
      "functions": [
        {
          "add": false,
          "count": {
            "type": "minecraft:uniform",
            "max": 96.0,
            "min": 0.0
          },
          "function": "minecraft:set_count"
        }
      ],
      "rolls": 1.0
    },
    {
      "bonus_rolls": 0.0,
      "entries": [
        {
          "type": "minecraft:item",
          "name": "alekiships:watercraft_frame_angled"
        }
      ],
      "functions": [
        {
          "add": false,
          "count": {
            "type": "minecraft:uniform",
            "max": 3.0,
            "min": 1.0
          },
          "function": "minecraft:set_count"
        }
      ],
      "rolls": 2.0
    },
    {
      "bonus_rolls": 0.0,
      "entries": [
        {
          "type": "minecraft:item",
          "name": "alekiships:watercraft_frame_flat"
        }
      ],
      "functions": [
        {
          "add": false,
          "count": {
            "type": "minecraft:uniform",
            "max": 7.0,
            "min": 3.0
          },
          "function": "minecraft:set_count"
        }
      ],
      "rolls": 1.0
    },
    {
      "bonus_rolls": 0.0,
      "entries": [
        {
          "type": "minecraft:item",
          "name": "alekiships:cleat"
        }
      ],
      "functions": [
        {
          "add": false,
          "count": {
            "type": "minecraft:uniform",
            "max": 4.0,
            "min": 0.0
          },
          "function": "minecraft:set_count"
        }
      ],
      "rolls": 1.0
    },
    {
      "bonus_rolls": 0.0,
      "entries": [
        {
          "type": "minecraft:item",
          "name": "minecraft:scaffolding"
        }
      ],
      "functions": [
        {
          "add": false,
          "count": {
            "type": "minecraft:uniform",
            "max": 5.0,
            "min": 0.0
          },
          "function": "minecraft:set_count"
        }
      ],
      "rolls": 1.0
    },
    {
      "bonus_rolls": 0.0,
      "entries": [
        {
          "type": "minecraft:item",
          "name": "minecraft:slime_ball"
        }
      ],
      "functions": [
        {
          "add": false,
          "count": 8.0,
          "function": "minecraft:set_count"
        }
      ],
      "rolls": 1.0
    },
    {
      "bonus_rolls": 0.0,
      "entries": [
        {
          "type": "minecraft:item",
          "name": "minecraft:lead"
        }
      ],
      "rolls": 1.0
    }
  ],
  "random_sequence": "alekiships:structures/sloop/mangrove"
}