{
	"credit": "Made with Blockbench",
	"textures": {
		"particle": "block/bamboo_planks",
		"frame": "block/bamboo_planks"
	},
	"elements": [
		{
			"from": [0, 14, 0],
			"to": [8, 16, 1],
			"faces": {
				"north": {"uv": [6, 3, 14, 5], "texture": "#frame"},
				"east": {"uv": [5, 7, 7, 8], "rotation": 90, "texture": "#frame"},
				"south": {"uv": [0, 10, 8, 12], "texture": "#frame"},
				"west": {"uv": [4, 7, 6, 8], "rotation": 90, "texture": "#frame"},
				"up": {"uv": [4, 7, 12, 8], "rotation": 180, "texture": "#frame"},
				"down": {"uv": [0, 0, 1, 8], "rotation": 270, "texture": "#frame"}
			}
		},
		{
			"from": [6, 10, 0],
			"to": [8, 14, 1],
			"faces": {
				"north": {"uv": [10, 11, 14, 13], "rotation": 90, "texture": "#frame"},
				"east": {"uv": [5, 7, 9, 8], "rotation": 90, "texture": "#frame"},
				"south": {"uv": [0, 2, 4, 4], "rotation": 270, "texture": "#frame"},
				"west": {"uv": [0, 0, 1, 4], "texture": "#frame"},
				"up": {"uv": [0, 0, 1, 2], "rotation": 270, "texture": "#frame"},
				"down": {"uv": [0, 0, 1, 2], "rotation": 270, "texture": "#frame"}
			}
		},
		{
			"from": [0, 10, 0],
			"to": [2, 14, 1],
			"faces": {
				"north": {"uv": [3, 7, 7, 9], "rotation": 90, "texture": "#frame"},
				"east": {"uv": [0, 0, 1, 4], "rotation": 180, "texture": "#frame"},
				"south": {"uv": [8, 6, 12, 8], "rotation": 270, "texture": "#frame"},
				"west": {"uv": [4, 7, 8, 8], "rotation": 90, "texture": "#frame"},
				"up": {"uv": [0, 0, 1, 2], "rotation": 270, "texture": "#frame"},
				"down": {"uv": [0, 0, 1, 2], "rotation": 270, "texture": "#frame"}
			}
		},
		{
			"from": [0, 8, 0],
			"to": [10, 10, 1],
			"faces": {
				"north": {"uv": [1, 7, 11, 9], "texture": "#frame"},
				"east": {"uv": [5, 7, 7, 8], "rotation": 90, "texture": "#frame"},
				"south": {"uv": [0, 6, 10, 8], "texture": "#frame"},
				"west": {"uv": [4, 7, 6, 8], "rotation": 90, "texture": "#frame"},
				"up": {"uv": [3, 15, 13, 16], "rotation": 180, "texture": "#frame"},
				"down": {"uv": [1, 7, 11, 8], "texture": "#frame"}
			}
		},
		{
			"from": [6, 6, 0],
			"to": [15, 8, 1],
			"faces": {
				"north": {"uv": [7, 11, 16, 13], "texture": "#frame"},
				"east": {"uv": [5, 7, 7, 8], "rotation": 90, "texture": "#frame"},
				"south": {"uv": [0, 11, 9, 13], "texture": "#frame"},
				"west": {"uv": [4, 7, 6, 8], "rotation": 90, "texture": "#frame"},
				"up": {"uv": [3, 7, 13, 8], "rotation": 180, "texture": "#frame"},
				"down": {"uv": [1, 7, 11, 8], "texture": "#frame"}
			}
		},
		{
			"from": [8, 2, 0],
			"to": [10, 6, 1],
			"faces": {
				"north": {"uv": [9, 7, 13, 9], "rotation": 90, "texture": "#frame"},
				"east": {"uv": [0, 0, 1, 4], "rotation": 180, "texture": "#frame"},
				"south": {"uv": [0, 6, 4, 8], "rotation": 270, "texture": "#frame"},
				"west": {"uv": [4, 7, 8, 8], "rotation": 90, "texture": "#frame"},
				"up": {"uv": [0, 0, 1, 2], "rotation": 270, "texture": "#frame"},
				"down": {"uv": [0, 0, 1, 2], "rotation": 270, "texture": "#frame"}
			}
		},
		{
			"from": [8, 0, 0],
			"to": [15, 2, 1],
			"faces": {
				"north": {"uv": [4, 3, 11, 5], "texture": "#frame"},
				"east": {"uv": [5, 7, 7, 8], "rotation": 90, "texture": "#frame"},
				"south": {"uv": [6, 10, 13, 12], "texture": "#frame"},
				"west": {"uv": [4, 7, 6, 8], "rotation": 90, "texture": "#frame"},
				"up": {"uv": [0, 0, 1, 8], "rotation": 90, "texture": "#frame"},
				"down": {"uv": [1, 7, 9, 8], "texture": "#frame"}
			}
		},
		{
			"from": [14, 2, 0],
			"to": [15, 6, 1],
			"faces": {
				"north": {"uv": [3, 12, 7, 13], "rotation": 90, "texture": "#frame"},
				"east": {"uv": [5, 7, 9, 8], "rotation": 90, "texture": "#frame"},
				"south": {"uv": [9, 6, 13, 7], "rotation": 270, "texture": "#frame"},
				"west": {"uv": [0, 0, 1, 4], "texture": "#frame"},
				"up": {"uv": [0, 0, 1, 2], "rotation": 270, "texture": "#frame"},
				"down": {"uv": [0, 0, 1, 2], "rotation": 270, "texture": "#frame"}
			}
		},
		{
			"from": [15, 14, 8],
			"to": [16, 16, 16],
			"faces": {
				"north": {"uv": [5, 7, 7, 8], "rotation": 90, "texture": "#frame"},
				"east": {"uv": [0, 10, 8, 12], "texture": "#frame"},
				"south": {"uv": [4, 7, 6, 8], "rotation": 90, "texture": "#frame"},
				"west": {"uv": [6, 3, 14, 5], "texture": "#frame"},
				"up": {"uv": [4, 7, 12, 8], "rotation": 90, "texture": "#frame"},
				"down": {"uv": [0, 0, 1, 8], "texture": "#frame"}
			}
		},
		{
			"from": [15, 10, 8],
			"to": [16, 14, 10],
			"faces": {
				"north": {"uv": [5, 7, 9, 8], "rotation": 90, "texture": "#frame"},
				"east": {"uv": [0, 2, 4, 4], "rotation": 270, "texture": "#frame"},
				"south": {"uv": [0, 0, 1, 4], "texture": "#frame"},
				"west": {"uv": [10, 11, 14, 13], "rotation": 90, "texture": "#frame"},
				"up": {"uv": [0, 0, 1, 2], "rotation": 180, "texture": "#frame"},
				"down": {"uv": [0, 0, 1, 2], "texture": "#frame"}
			}
		},
		{
			"from": [15, 8, 6],
			"to": [16, 10, 16],
			"faces": {
				"north": {"uv": [5, 7, 7, 8], "rotation": 90, "texture": "#frame"},
				"east": {"uv": [0, 6, 10, 8], "texture": "#frame"},
				"south": {"uv": [4, 7, 6, 8], "rotation": 90, "texture": "#frame"},
				"west": {"uv": [1, 7, 11, 9], "texture": "#frame"},
				"up": {"uv": [3, 15, 13, 16], "rotation": 90, "texture": "#frame"},
				"down": {"uv": [1, 7, 11, 8], "rotation": 90, "texture": "#frame"}
			}
		},
		{
			"from": [15, 6, 0],
			"to": [16, 8, 10],
			"faces": {
				"north": {"uv": [5, 7, 7, 8], "rotation": 90, "texture": "#frame"},
				"east": {"uv": [0, 11, 10, 13], "texture": "#frame"},
				"south": {"uv": [4, 7, 6, 8], "rotation": 90, "texture": "#frame"},
				"west": {"uv": [6, 11, 16, 13], "texture": "#frame"},
				"up": {"uv": [3, 7, 13, 8], "rotation": 90, "texture": "#frame"},
				"down": {"uv": [1, 7, 11, 8], "rotation": 90, "texture": "#frame"}
			}
		},
		{
			"from": [15, 2, 0],
			"to": [16, 6, 2],
			"faces": {
				"north": {"uv": [5, 7, 9, 8], "rotation": 90, "texture": "#frame"},
				"east": {"uv": [9, 6, 13, 8], "rotation": 270, "texture": "#frame"},
				"south": {"uv": [0, 0, 1, 4], "texture": "#frame"},
				"west": {"uv": [3, 11, 7, 13], "rotation": 90, "texture": "#frame"},
				"up": {"uv": [0, 0, 1, 2], "rotation": 180, "texture": "#frame"},
				"down": {"uv": [0, 0, 1, 2], "texture": "#frame"}
			}
		},
		{
			"from": [15, 2, 6],
			"to": [16, 6, 8],
			"faces": {
				"north": {"uv": [0, 0, 1, 4], "rotation": 180, "texture": "#frame"},
				"east": {"uv": [0, 6, 4, 8], "rotation": 270, "texture": "#frame"},
				"south": {"uv": [4, 7, 8, 8], "rotation": 90, "texture": "#frame"},
				"west": {"uv": [9, 7, 13, 9], "rotation": 90, "texture": "#frame"},
				"up": {"uv": [0, 0, 1, 2], "rotation": 180, "texture": "#frame"},
				"down": {"uv": [0, 0, 1, 2], "texture": "#frame"}
			}
		},
		{
			"from": [15, 0, 0],
			"to": [16, 2, 8],
			"faces": {
				"north": {"uv": [5, 7, 7, 8], "rotation": 90, "texture": "#frame"},
				"east": {"uv": [6, 10, 14, 12], "texture": "#frame"},
				"south": {"uv": [4, 7, 6, 8], "rotation": 90, "texture": "#frame"},
				"west": {"uv": [3, 3, 11, 5], "texture": "#frame"},
				"up": {"uv": [0, 0, 1, 8], "texture": "#frame"},
				"down": {"uv": [1, 7, 9, 8], "rotation": 90, "texture": "#frame"}
			}
		},
		{
			"from": [15, 10, 14],
			"to": [16, 14, 16],
			"faces": {
				"north": {"uv": [0, 0, 1, 4], "rotation": 180, "texture": "#frame"},
				"east": {"uv": [8, 6, 12, 8], "rotation": 270, "texture": "#frame"},
				"south": {"uv": [4, 7, 8, 8], "rotation": 90, "texture": "#frame"},
				"west": {"uv": [3, 7, 7, 9], "rotation": 90, "texture": "#frame"},
				"up": {"uv": [0, 0, 1, 2], "rotation": 180, "texture": "#frame"},
				"down": {"uv": [0, 0, 1, 2], "texture": "#frame"}
			}
		},
		{
			"name": "spar",
			"from": [7, 7, 1],
			"to": [9, 9, 7],
			"faces": {
				"north": {"uv": [8, 9, 6, 11], "texture": "#frame"},
				"east": {"uv": [14, 9, 8, 11], "texture": "#frame"},
				"south": {"uv": [16, 9, 14, 11], "texture": "#frame"},
				"west": {"uv": [6, 9, 0, 11], "texture": "#frame"},
				"up": {"uv": [12, 3, 6, 5], "rotation": 90, "texture": "#frame"},
				"down": {"uv": [8, 3, 14, 5], "rotation": 90, "texture": "#frame"}
			}
		},
		{
			"name": "spar",
			"from": [7, 7, 7],
			"to": [15, 9, 9],
			"faces": {
				"north": {"uv": [1, 7, 9, 9], "texture": "#frame"},
				"east": {"uv": [7, 7, 9, 9], "rotation": 90, "texture": "#frame"},
				"south": {"uv": [7, 7, 15, 9], "texture": "#frame"},
				"west": {"uv": [7, 7, 9, 9], "texture": "#frame"},
				"up": {"uv": [7, 7, 15, 9], "texture": "#frame"},
				"down": {"uv": [7, 7, 15, 9], "texture": "#frame"}
			}
		},
		{
			"name": "spar",
			"from": [0, 14, 14],
			"to": [15, 16, 16],
			"faces": {
				"north": {"uv": [1, 0, 16, 2], "texture": "#frame"},
				"east": {"uv": [0, 0, 2, 2], "rotation": 90, "texture": "#frame"},
				"south": {"uv": [0, 0, 15, 2], "texture": "#frame"},
				"west": {"uv": [4, 7, 6, 9], "texture": "#frame"},
				"up": {"uv": [0, 14, 15, 16], "texture": "#frame"},
				"down": {"uv": [0, 0, 15, 2], "texture": "#frame"}
			}
		},
		{
			"name": "spar",
			"from": [0, 14, 1],
			"to": [2, 16, 14],
			"faces": {
				"north": {"uv": [14, 0, 16, 2], "texture": "#frame"},
				"east": {"uv": [2, 0, 15, 2], "texture": "#frame"},
				"south": {"uv": [0, 0, 2, 2], "rotation": 90, "texture": "#frame"},
				"west": {"uv": [1, 0, 14, 2], "texture": "#frame"},
				"up": {"uv": [0, 6, 13, 8], "rotation": 90, "texture": "#frame"},
				"down": {"uv": [0, 2, 13, 4], "rotation": 270, "texture": "#frame"}
			}
		}
	],
	"groups": [
		{
			"name": "side1",
			"origin": [0, 0, 0],
			"color": 0,
			"children": [0, 1, 2, 3, 4, 5, 6, 7]
		},
		{
			"name": "side2",
			"origin": [0, 0, 0],
			"color": 0,
			"children": [8, 9, 10, 11, 12, 13, 14, 15]
		},
		{
			"name": "spars",
			"origin": [0, 0, 0],
			"color": 0,
			"children": [16, 17, 18, 19]
		}
	]
}