{
  "type": "minecraft:chest",
  "pools": [
    {
      "bonus_rolls": 0.0,
      "entries": [
        {
          "type": "minecraft:item",
          "name": "alekiships:cleat"
        }
      ],
      "functions": [
        {
          "add": false,
          "count": {
            "type": "minecraft:uniform",
            "max": 2.0,
            "min": 0.0
          },
          "function": "minecraft:set_count"
        }
      ],
      "rolls": 1.0
    },
    {
      "bonus_rolls": 0.0,
      "entries": [
        {
          "type": "minecraft:item",
          "name": "alekiships:anchor"
        }
      ],
      "rolls": 1.0
    },
    {
      "bonus_rolls": 0.0,
      "entries": [
        {
          "type": "minecraft:item",
          "name": "minecraft:scaffolding"
        }
      ],
      "functions": [
        {
          "add": false,
          "count": {
            "type": "minecraft:uniform",
            "max": 10.0,
            "min": 0.0
          },
          "function": "minecraft:set_count"
        }
      ],
      "rolls": 1.0
    },
    {
      "bonus_rolls": 0.0,
      "entries": [
        {
          "type": "minecraft:item",
          "name": "minecraft:bread"
        }
      ],
      "functions": [
        {
          "add": false,
          "count": {
            "type": "minecraft:uniform",
            "max": 10.0,
            "min": 3.0
          },
          "function": "minecraft:set_count"
        }
      ],
      "rolls": 1.0
    },
    {
      "bonus_rolls": 0.0,
      "entries": [
        {
          "type": "minecraft:item",
          "name": "alekiships:cannonball"
        }
      ],
      "functions": [
        {
          "add": false,
          "count": {
            "type": "minecraft:uniform",
            "max": 6.0,
            "min": 1.0
          },
          "function": "minecraft:set_count"
        }
      ],
      "rolls": 1.0
    },
    {
      "bonus_rolls": 0.0,
      "entries": [
        {
          "type": "minecraft:item",
          "name": "minecraft:flint_and_steel"
        }
      ],
      "functions": [
        {
          "add": false,
          "count": {
            "type": "minecraft:uniform",
            "max": 1.0,
            "min": 0.0
          },
          "function": "minecraft:set_count"
        }
      ],
      "rolls": 1.0
    },
    {
      "bonus_rolls": 0.0,
      "entries": [
        {
          "type": "minecraft:item",
          "name": "alekiships:music_disc_pirate_crafting"
        }
      ],
      "functions": [
        {
          "add": false,
          "count": {
            "type": "minecraft:uniform",
            "max": 1.0,
            "min": 0.0
          },
          "function": "minecraft:set_count"
        }
      ],
      "rolls": 1.0
    },
    {
      "bonus_rolls": 0.0,
      "entries": [
        {
          "type": "minecraft:item",
          "name": "minecraft:dark_oak_planks"
        }
      ],
      "functions": [
        {
          "add": false,
          "count": {
            "type": "minecraft:uniform",
            "max": 32.0,
            "min": 0.0
          },
          "function": "minecraft:set_count"
        }
      ],
      "rolls": 1.0
    }
  ],
  "random_sequence": "alekiships:structures/sloop_hut/dark_oak"
}