{
  "multipart": [
    {
      "apply": {
        "model": "alekiships:block/watercraft_frame/angled/straight",
        "y": 180
      },
      "when": {
        "facing": "north",
        "shape": "straight"
      }
    },
    {
      "apply": {
        "model": "alekiships:block/wood/watercraft_frame/angled/bamboo/straight/first",
        "uvlock": true,
        "y": 180
      },
      "when": {
        "facing": "north",
        "frame_processed": "0|1|2|3",
        "shape": "straight"
      }
    },
    {
      "apply": {
        "model": "alekiships:block/wood/watercraft_frame/angled/bamboo/straight/second",
        "uvlock": true,
        "y": 180
      },
      "when": {
        "facing": "north",
        "frame_processed": "1|2|3",
        "shape": "straight"
      }
    },
    {
      "apply": {
        "model": "alekiships:block/wood/watercraft_frame/angled/bamboo/straight/third",
        "uvlock": true,
        "y": 180
      },
      "when": {
        "facing": "north",
        "frame_processed": "2|3",
        "shape": "straight"
      }
    },
    {
      "apply": {
        "model": "alekiships:block/wood/watercraft_frame/angled/bamboo/straight/fourth",
        "uvlock": true,
        "y": 180
      },
      "when": {
        "facing": "north",
        "frame_processed": "3",
        "shape": "straight"
      }
    },
    {
      "apply": {
        "model": "alekiships:block/watercraft_frame/angled/inner",
        "y": 90
      },
      "when": {
        "facing": "north",
        "shape": "inner_left"
      }
    },
    {
      "apply": {
        "model": "alekiships:block/wood/watercraft_frame/angled/bamboo/inner/first",
        "uvlock": true,
        "y": 90
      },
      "when": {
        "facing": "north",
        "frame_processed": "0|1|2|3",
        "shape": "inner_left"
      }
    },
    {
      "apply": {
        "model": "alekiships:block/wood/watercraft_frame/angled/bamboo/inner/second",
        "uvlock": true,
        "y": 90
      },
      "when": {
        "facing": "north",
        "frame_processed": "1|2|3",
        "shape": "inner_left"
      }
    },
    {
      "apply": {
        "model": "alekiships:block/wood/watercraft_frame/angled/bamboo/inner/third",
        "uvlock": true,
        "y": 90
      },
      "when": {
        "facing": "north",
        "frame_processed": "2|3",
        "shape": "inner_left"
      }
    },
    {
      "apply": {
        "model": "alekiships:block/wood/watercraft_frame/angled/bamboo/inner/fourth",
        "uvlock": true,
        "y": 90
      },
      "when": {
        "facing": "north",
        "frame_processed": "3",
        "shape": "inner_left"
      }
    },
    {
      "apply": {
        "model": "alekiships:block/watercraft_frame/angled/inner",
        "y": 180
      },
      "when": {
        "facing": "north",
        "shape": "inner_right"
      }
    },
    {
      "apply": {
        "model": "alekiships:block/wood/watercraft_frame/angled/bamboo/inner/first",
        "uvlock": true,
        "y": 180
      },
      "when": {
        "facing": "north",
        "frame_processed": "0|1|2|3",
        "shape": "inner_right"
      }
    },
    {
      "apply": {
        "model": "alekiships:block/wood/watercraft_frame/angled/bamboo/inner/second",
        "uvlock": true,
        "y": 180
      },
      "when": {
        "facing": "north",
        "frame_processed": "1|2|3",
        "shape": "inner_right"
      }
    },
    {
      "apply": {
        "model": "alekiships:block/wood/watercraft_frame/angled/bamboo/inner/third",
        "uvlock": true,
        "y": 180
      },
      "when": {
        "facing": "north",
        "frame_processed": "2|3",
        "shape": "inner_right"
      }
    },
    {
      "apply": {
        "model": "alekiships:block/wood/watercraft_frame/angled/bamboo/inner/fourth",
        "uvlock": true,
        "y": 180
      },
      "when": {
        "facing": "north",
        "frame_processed": "3",
        "shape": "inner_right"
      }
    },
    {
      "apply": {
        "model": "alekiships:block/watercraft_frame/angled/outer",
        "y": 270
      },
      "when": {
        "facing": "north",
        "shape": "outer_left"
      }
    },
    {
      "apply": {
        "model": "alekiships:block/wood/watercraft_frame/angled/bamboo/outer/first",
        "uvlock": true,
        "y": 270
      },
      "when": {
        "facing": "north",
        "frame_processed": "0|1|2|3",
        "shape": "outer_left"
      }
    },
    {
      "apply": {
        "model": "alekiships:block/wood/watercraft_frame/angled/bamboo/outer/second",
        "uvlock": true,
        "y": 270
      },
      "when": {
        "facing": "north",
        "frame_processed": "1|2|3",
        "shape": "outer_left"
      }
    },
    {
      "apply": {
        "model": "alekiships:block/wood/watercraft_frame/angled/bamboo/outer/third",
        "uvlock": true,
        "y": 270
      },
      "when": {
        "facing": "north",
        "frame_processed": "2|3",
        "shape": "outer_left"
      }
    },
    {
      "apply": {
        "model": "alekiships:block/wood/watercraft_frame/angled/bamboo/outer/fourth",
        "uvlock": true,
        "y": 270
      },
      "when": {
        "facing": "north",
        "frame_processed": "3",
        "shape": "outer_left"
      }
    },
    {
      "apply": {
        "model": "alekiships:block/watercraft_frame/angled/outer"
      },
      "when": {
        "facing": "north",
        "shape": "outer_right"
      }
    },
    {
      "apply": {
        "model": "alekiships:block/wood/watercraft_frame/angled/bamboo/outer/first"
      },
      "when": {
        "facing": "north",
        "frame_processed": "0|1|2|3",
        "shape": "outer_right"
      }
    },
    {
      "apply": {
        "model": "alekiships:block/wood/watercraft_frame/angled/bamboo/outer/second"
      },
      "when": {
        "facing": "north",
        "frame_processed": "1|2|3",
        "shape": "outer_right"
      }
    },
    {
      "apply": {
        "model": "alekiships:block/wood/watercraft_frame/angled/bamboo/outer/third"
      },
      "when": {
        "facing": "north",
        "frame_processed": "2|3",
        "shape": "outer_right"
      }
    },
    {
      "apply": {
        "model": "alekiships:block/wood/watercraft_frame/angled/bamboo/outer/fourth"
      },
      "when": {
        "facing": "north",
        "frame_processed": "3",
        "shape": "outer_right"
      }
    },
    {
      "apply": {
        "model": "alekiships:block/watercraft_frame/angled/straight"
      },
      "when": {
        "facing": "south",
        "shape": "straight"
      }
    },
    {
      "apply": {
        "model": "alekiships:block/wood/watercraft_frame/angled/bamboo/straight/first"
      },
      "when": {
        "facing": "south",
        "frame_processed": "0|1|2|3",
        "shape": "straight"
      }
    },
    {
      "apply": {
        "model": "alekiships:block/wood/watercraft_frame/angled/bamboo/straight/second"
      },
      "when": {
        "facing": "south",
        "frame_processed": "1|2|3",
        "shape": "straight"
      }
    },
    {
      "apply": {
        "model": "alekiships:block/wood/watercraft_frame/angled/bamboo/straight/third"
      },
      "when": {
        "facing": "south",
        "frame_processed": "2|3",
        "shape": "straight"
      }
    },
    {
      "apply": {
        "model": "alekiships:block/wood/watercraft_frame/angled/bamboo/straight/fourth"
      },
      "when": {
        "facing": "south",
        "frame_processed": "3",
        "shape": "straight"
      }
    },
    {
      "apply": {
        "model": "alekiships:block/watercraft_frame/angled/inner",
        "y": 270
      },
      "when": {
        "facing": "south",
        "shape": "inner_left"
      }
    },
    {
      "apply": {
        "model": "alekiships:block/wood/watercraft_frame/angled/bamboo/inner/first",
        "uvlock": true,
        "y": 270
      },
      "when": {
        "facing": "south",
        "frame_processed": "0|1|2|3",
        "shape": "inner_left"
      }
    },
    {
      "apply": {
        "model": "alekiships:block/wood/watercraft_frame/angled/bamboo/inner/second",
        "uvlock": true,
        "y": 270
      },
      "when": {
        "facing": "south",
        "frame_processed": "1|2|3",
        "shape": "inner_left"
      }
    },
    {
      "apply": {
        "model": "alekiships:block/wood/watercraft_frame/angled/bamboo/inner/third",
        "uvlock": true,
        "y": 270
      },
      "when": {
        "facing": "south",
        "frame_processed": "2|3",
        "shape": "inner_left"
      }
    },
    {
      "apply": {
        "model": "alekiships:block/wood/watercraft_frame/angled/bamboo/inner/fourth",
        "uvlock": true,
        "y": 270
      },
      "when": {
        "facing": "south",
        "frame_processed": "3",
        "shape": "inner_left"
      }
    },
    {
      "apply": {
        "model": "alekiships:block/watercraft_frame/angled/inner"
      },
      "when": {
        "facing": "south",
        "shape": "inner_right"
      }
    },
    {
      "apply": {
        "model": "alekiships:block/wood/watercraft_frame/angled/bamboo/inner/first"
      },
      "when": {
        "facing": "south",
        "frame_processed": "0|1|2|3",
        "shape": "inner_right"
      }
    },
    {
      "apply": {
        "model": "alekiships:block/wood/watercraft_frame/angled/bamboo/inner/second"
      },
      "when": {
        "facing": "south",
        "frame_processed": "1|2|3",
        "shape": "inner_right"
      }
    },
    {
      "apply": {
        "model": "alekiships:block/wood/watercraft_frame/angled/bamboo/inner/third"
      },
      "when": {
        "facing": "south",
        "frame_processed": "2|3",
        "shape": "inner_right"
      }
    },
    {
      "apply": {
        "model": "alekiships:block/wood/watercraft_frame/angled/bamboo/inner/fourth"
      },
      "when": {
        "facing": "south",
        "frame_processed": "3",
        "shape": "inner_right"
      }
    },
    {
      "apply": {
        "model": "alekiships:block/watercraft_frame/angled/outer",
        "y": 90
      },
      "when": {
        "facing": "south",
        "shape": "outer_left"
      }
    },
    {
      "apply": {
        "model": "alekiships:block/wood/watercraft_frame/angled/bamboo/outer/first",
        "uvlock": true,
        "y": 90
      },
      "when": {
        "facing": "south",
        "frame_processed": "0|1|2|3",
        "shape": "outer_left"
      }
    },
    {
      "apply": {
        "model": "alekiships:block/wood/watercraft_frame/angled/bamboo/outer/second",
        "uvlock": true,
        "y": 90
      },
      "when": {
        "facing": "south",
        "frame_processed": "1|2|3",
        "shape": "outer_left"
      }
    },
    {
      "apply": {
        "model": "alekiships:block/wood/watercraft_frame/angled/bamboo/outer/third",
        "uvlock": true,
        "y": 90
      },
      "when": {
        "facing": "south",
        "frame_processed": "2|3",
        "shape": "outer_left"
      }
    },
    {
      "apply": {
        "model": "alekiships:block/wood/watercraft_frame/angled/bamboo/outer/fourth",
        "uvlock": true,
        "y": 90
      },
      "when": {
        "facing": "south",
        "frame_processed": "3",
        "shape": "outer_left"
      }
    },
    {
      "apply": {
        "model": "alekiships:block/watercraft_frame/angled/outer",
        "y": 180
      },
      "when": {
        "facing": "south",
        "shape": "outer_right"
      }
    },
    {
      "apply": {
        "model": "alekiships:block/wood/watercraft_frame/angled/bamboo/outer/first",
        "uvlock": true,
        "y": 180
      },
      "when": {
        "facing": "south",
        "frame_processed": "0|1|2|3",
        "shape": "outer_right"
      }
    },
    {
      "apply": {
        "model": "alekiships:block/wood/watercraft_frame/angled/bamboo/outer/second",
        "uvlock": true,
        "y": 180
      },
      "when": {
        "facing": "south",
        "frame_processed": "1|2|3",
        "shape": "outer_right"
      }
    },
    {
      "apply": {
        "model": "alekiships:block/wood/watercraft_frame/angled/bamboo/outer/third",
        "uvlock": true,
        "y": 180
      },
      "when": {
        "facing": "south",
        "frame_processed": "2|3",
        "shape": "outer_right"
      }
    },
    {
      "apply": {
        "model": "alekiships:block/wood/watercraft_frame/angled/bamboo/outer/fourth",
        "uvlock": true,
        "y": 180
      },
      "when": {
        "facing": "south",
        "frame_processed": "3",
        "shape": "outer_right"
      }
    },
    {
      "apply": {
        "model": "alekiships:block/watercraft_frame/angled/straight",
        "y": 90
      },
      "when": {
        "facing": "west",
        "shape": "straight"
      }
    },
    {
      "apply": {
        "model": "alekiships:block/wood/watercraft_frame/angled/bamboo/straight/first",
        "uvlock": true,
        "y": 90
      },
      "when": {
        "facing": "west",
        "frame_processed": "0|1|2|3",
        "shape": "straight"
      }
    },
    {
      "apply": {
        "model": "alekiships:block/wood/watercraft_frame/angled/bamboo/straight/second",
        "uvlock": true,
        "y": 90
      },
      "when": {
        "facing": "west",
        "frame_processed": "1|2|3",
        "shape": "straight"
      }
    },
    {
      "apply": {
        "model": "alekiships:block/wood/watercraft_frame/angled/bamboo/straight/third",
        "uvlock": true,
        "y": 90
      },
      "when": {
        "facing": "west",
        "frame_processed": "2|3",
        "shape": "straight"
      }
    },
    {
      "apply": {
        "model": "alekiships:block/wood/watercraft_frame/angled/bamboo/straight/fourth",
        "uvlock": true,
        "y": 90
      },
      "when": {
        "facing": "west",
        "frame_processed": "3",
        "shape": "straight"
      }
    },
    {
      "apply": {
        "model": "alekiships:block/watercraft_frame/angled/inner"
      },
      "when": {
        "facing": "west",
        "shape": "inner_left"
      }
    },
    {
      "apply": {
        "model": "alekiships:block/wood/watercraft_frame/angled/bamboo/inner/first"
      },
      "when": {
        "facing": "west",
        "frame_processed": "0|1|2|3",
        "shape": "inner_left"
      }
    },
    {
      "apply": {
        "model": "alekiships:block/wood/watercraft_frame/angled/bamboo/inner/second"
      },
      "when": {
        "facing": "west",
        "frame_processed": "1|2|3",
        "shape": "inner_left"
      }
    },
    {
      "apply": {
        "model": "alekiships:block/wood/watercraft_frame/angled/bamboo/inner/third"
      },
      "when": {
        "facing": "west",
        "frame_processed": "2|3",
        "shape": "inner_left"
      }
    },
    {
      "apply": {
        "model": "alekiships:block/wood/watercraft_frame/angled/bamboo/inner/fourth"
      },
      "when": {
        "facing": "west",
        "frame_processed": "3",
        "shape": "inner_left"
      }
    },
    {
      "apply": {
        "model": "alekiships:block/watercraft_frame/angled/inner",
        "y": 90
      },
      "when": {
        "facing": "west",
        "shape": "inner_right"
      }
    },
    {
      "apply": {
        "model": "alekiships:block/wood/watercraft_frame/angled/bamboo/inner/first",
        "uvlock": true,
        "y": 90
      },
      "when": {
        "facing": "west",
        "frame_processed": "0|1|2|3",
        "shape": "inner_right"
      }
    },
    {
      "apply": {
        "model": "alekiships:block/wood/watercraft_frame/angled/bamboo/inner/second",
        "uvlock": true,
        "y": 90
      },
      "when": {
        "facing": "west",
        "frame_processed": "1|2|3",
        "shape": "inner_right"
      }
    },
    {
      "apply": {
        "model": "alekiships:block/wood/watercraft_frame/angled/bamboo/inner/third",
        "uvlock": true,
        "y": 90
      },
      "when": {
        "facing": "west",
        "frame_processed": "2|3",
        "shape": "inner_right"
      }
    },
    {
      "apply": {
        "model": "alekiships:block/wood/watercraft_frame/angled/bamboo/inner/fourth",
        "uvlock": true,
        "y": 90
      },
      "when": {
        "facing": "west",
        "frame_processed": "3",
        "shape": "inner_right"
      }
    },
    {
      "apply": {
        "model": "alekiships:block/watercraft_frame/angled/outer",
        "y": 180
      },
      "when": {
        "facing": "west",
        "shape": "outer_left"
      }
    },
    {
      "apply": {
        "model": "alekiships:block/wood/watercraft_frame/angled/bamboo/outer/first",
        "uvlock": true,
        "y": 180
      },
      "when": {
        "facing": "west",
        "frame_processed": "0|1|2|3",
        "shape": "outer_left"
      }
    },
    {
      "apply": {
        "model": "alekiships:block/wood/watercraft_frame/angled/bamboo/outer/second",
        "uvlock": true,
        "y": 180
      },
      "when": {
        "facing": "west",
        "frame_processed": "1|2|3",
        "shape": "outer_left"
      }
    },
    {
      "apply": {
        "model": "alekiships:block/wood/watercraft_frame/angled/bamboo/outer/third",
        "uvlock": true,
        "y": 180
      },
      "when": {
        "facing": "west",
        "frame_processed": "2|3",
        "shape": "outer_left"
      }
    },
    {
      "apply": {
        "model": "alekiships:block/wood/watercraft_frame/angled/bamboo/outer/fourth",
        "uvlock": true,
        "y": 180
      },
      "when": {
        "facing": "west",
        "frame_processed": "3",
        "shape": "outer_left"
      }
    },
    {
      "apply": {
        "model": "alekiships:block/watercraft_frame/angled/outer",
        "y": 270
      },
      "when": {
        "facing": "west",
        "shape": "outer_right"
      }
    },
    {
      "apply": {
        "model": "alekiships:block/wood/watercraft_frame/angled/bamboo/outer/first",
        "uvlock": true,
        "y": 270
      },
      "when": {
        "facing": "west",
        "frame_processed": "0|1|2|3",
        "shape": "outer_right"
      }
    },
    {
      "apply": {
        "model": "alekiships:block/wood/watercraft_frame/angled/bamboo/outer/second",
        "uvlock": true,
        "y": 270
      },
      "when": {
        "facing": "west",
        "frame_processed": "1|2|3",
        "shape": "outer_right"
      }
    },
    {
      "apply": {
        "model": "alekiships:block/wood/watercraft_frame/angled/bamboo/outer/third",
        "uvlock": true,
        "y": 270
      },
      "when": {
        "facing": "west",
        "frame_processed": "2|3",
        "shape": "outer_right"
      }
    },
    {
      "apply": {
        "model": "alekiships:block/wood/watercraft_frame/angled/bamboo/outer/fourth",
        "uvlock": true,
        "y": 270
      },
      "when": {
        "facing": "west",
        "frame_processed": "3",
        "shape": "outer_right"
      }
    },
    {
      "apply": {
        "model": "alekiships:block/watercraft_frame/angled/straight",
        "y": 270
      },
      "when": {
        "facing": "east",
        "shape": "straight"
      }
    },
    {
      "apply": {
        "model": "alekiships:block/wood/watercraft_frame/angled/bamboo/straight/first",
        "uvlock": true,
        "y": 270
      },
      "when": {
        "facing": "east",
        "frame_processed": "0|1|2|3",
        "shape": "straight"
      }
    },
    {
      "apply": {
        "model": "alekiships:block/wood/watercraft_frame/angled/bamboo/straight/second",
        "uvlock": true,
        "y": 270
      },
      "when": {
        "facing": "east",
        "frame_processed": "1|2|3",
        "shape": "straight"
      }
    },
    {
      "apply": {
        "model": "alekiships:block/wood/watercraft_frame/angled/bamboo/straight/third",
        "uvlock": true,
        "y": 270
      },
      "when": {
        "facing": "east",
        "frame_processed": "2|3",
        "shape": "straight"
      }
    },
    {
      "apply": {
        "model": "alekiships:block/wood/watercraft_frame/angled/bamboo/straight/fourth",
        "uvlock": true,
        "y": 270
      },
      "when": {
        "facing": "east",
        "frame_processed": "3",
        "shape": "straight"
      }
    },
    {
      "apply": {
        "model": "alekiships:block/watercraft_frame/angled/inner",
        "y": 180
      },
      "when": {
        "facing": "east",
        "shape": "inner_left"
      }
    },
    {
      "apply": {
        "model": "alekiships:block/wood/watercraft_frame/angled/bamboo/inner/first",
        "uvlock": true,
        "y": 180
      },
      "when": {
        "facing": "east",
        "frame_processed": "0|1|2|3",
        "shape": "inner_left"
      }
    },
    {
      "apply": {
        "model": "alekiships:block/wood/watercraft_frame/angled/bamboo/inner/second",
        "uvlock": true,
        "y": 180
      },
      "when": {
        "facing": "east",
        "frame_processed": "1|2|3",
        "shape": "inner_left"
      }
    },
    {
      "apply": {
        "model": "alekiships:block/wood/watercraft_frame/angled/bamboo/inner/third",
        "uvlock": true,
        "y": 180
      },
      "when": {
        "facing": "east",
        "frame_processed": "2|3",
        "shape": "inner_left"
      }
    },
    {
      "apply": {
        "model": "alekiships:block/wood/watercraft_frame/angled/bamboo/inner/fourth",
        "uvlock": true,
        "y": 180
      },
      "when": {
        "facing": "east",
        "frame_processed": "3",
        "shape": "inner_left"
      }
    },
    {
      "apply": {
        "model": "alekiships:block/watercraft_frame/angled/inner",
        "y": 270
      },
      "when": {
        "facing": "east",
        "shape": "inner_right"
      }
    },
    {
      "apply": {
        "model": "alekiships:block/wood/watercraft_frame/angled/bamboo/inner/first",
        "uvlock": true,
        "y": 270
      },
      "when": {
        "facing": "east",
        "frame_processed": "0|1|2|3",
        "shape": "inner_right"
      }
    },
    {
      "apply": {
        "model": "alekiships:block/wood/watercraft_frame/angled/bamboo/inner/second",
        "uvlock": true,
        "y": 270
      },
      "when": {
        "facing": "east",
        "frame_processed": "1|2|3",
        "shape": "inner_right"
      }
    },
    {
      "apply": {
        "model": "alekiships:block/wood/watercraft_frame/angled/bamboo/inner/third",
        "uvlock": true,
        "y": 270
      },
      "when": {
        "facing": "east",
        "frame_processed": "2|3",
        "shape": "inner_right"
      }
    },
    {
      "apply": {
        "model": "alekiships:block/wood/watercraft_frame/angled/bamboo/inner/fourth",
        "uvlock": true,
        "y": 270
      },
      "when": {
        "facing": "east",
        "frame_processed": "3",
        "shape": "inner_right"
      }
    },
    {
      "apply": {
        "model": "alekiships:block/watercraft_frame/angled/outer"
      },
      "when": {
        "facing": "east",
        "shape": "outer_left"
      }
    },
    {
      "apply": {
        "model": "alekiships:block/wood/watercraft_frame/angled/bamboo/outer/first"
      },
      "when": {
        "facing": "east",
        "frame_processed": "0|1|2|3",
        "shape": "outer_left"
      }
    },
    {
      "apply": {
        "model": "alekiships:block/wood/watercraft_frame/angled/bamboo/outer/second"
      },
      "when": {
        "facing": "east",
        "frame_processed": "1|2|3",
        "shape": "outer_left"
      }
    },
    {
      "apply": {
        "model": "alekiships:block/wood/watercraft_frame/angled/bamboo/outer/third"
      },
      "when": {
        "facing": "east",
        "frame_processed": "2|3",
        "shape": "outer_left"
      }
    },
    {
      "apply": {
        "model": "alekiships:block/wood/watercraft_frame/angled/bamboo/outer/fourth"
      },
      "when": {
        "facing": "east",
        "frame_processed": "3",
        "shape": "outer_left"
      }
    },
    {
      "apply": {
        "model": "alekiships:block/watercraft_frame/angled/outer",
        "y": 90
      },
      "when": {
        "facing": "east",
        "shape": "outer_right"
      }
    },
    {
      "apply": {
        "model": "alekiships:block/wood/watercraft_frame/angled/bamboo/outer/first",
        "uvlock": true,
        "y": 90
      },
      "when": {
        "facing": "east",
        "frame_processed": "0|1|2|3",
        "shape": "outer_right"
      }
    },
    {
      "apply": {
        "model": "alekiships:block/wood/watercraft_frame/angled/bamboo/outer/second",
        "uvlock": true,
        "y": 90
      },
      "when": {
        "facing": "east",
        "frame_processed": "1|2|3",
        "shape": "outer_right"
      }
    },
    {
      "apply": {
        "model": "alekiships:block/wood/watercraft_frame/angled/bamboo/outer/third",
        "uvlock": true,
        "y": 90
      },
      "when": {
        "facing": "east",
        "frame_processed": "2|3",
        "shape": "outer_right"
      }
    },
    {
      "apply": {
        "model": "alekiships:block/wood/watercraft_frame/angled/bamboo/outer/fourth",
        "uvlock": true,
        "y": 90
      },
      "when": {
        "facing": "east",
        "frame_processed": "3",
        "shape": "outer_right"
      }
    }
  ]
}