{
	"credit": "Made with Blockbench",
	"parent": "block/block",
	"textures": {
		"particle": "minecraft:block/bamboo_planks",
		"frame": "minecraft:block/bamboo_planks"
	},
	"elements": [
		{
			"from": [15, 2, 15],
			"to": [16, 6, 15],
			"faces": {
				"north": {"uv": [0, 10, 1, 14], "texture": "#frame"}
			}
		},
		{
			"from": [0, 2, 15],
			"to": [1, 6, 15],
			"faces": {
				"north": {"uv": [15, 10, 16, 14], "texture": "#frame"}
			}
		},
		{
			"from": [0, 2, 1],
			"to": [1, 6, 1],
			"faces": {
				"south": {"uv": [0, 10, 1, 14], "texture": "#frame"}
			}
		},
		{
			"from": [15, 2, 1],
			"to": [16, 6, 1],
			"faces": {
				"south": {"uv": [15, 10, 16, 14], "texture": "#frame"}
			}
		},
		{
			"from": [15, 2, 0],
			"to": [15, 6, 1],
			"faces": {
				"west": {"uv": [0, 10, 1, 14], "texture": "#frame"}
			}
		},
		{
			"from": [15, 2, 15],
			"to": [15, 6, 16],
			"faces": {
				"west": {"uv": [15, 10, 16, 14], "texture": "#frame"}
			}
		},
		{
			"from": [1, 2, 15],
			"to": [1, 6, 16],
			"faces": {
				"east": {"uv": [0, 10, 1, 14], "texture": "#frame"}
			}
		},
		{
			"from": [1, 2, 0],
			"to": [1, 6, 1],
			"faces": {
				"east": {"uv": [15, 10, 16, 14], "texture": "#frame"}
			}
		},
		{
			"name": "spar",
			"from": [1, 6, 0],
			"to": [15, 8, 1],
			"faces": {
				"north": {"uv": [1, 8, 15, 10], "texture": "#frame", "cullface": "north"},
				"south": {"uv": [1, 8, 15, 10], "texture": "#frame"},
				"up": {"uv": [1, 3, 15, 4], "texture": "#frame"},
				"down": {"uv": [1, 15, 15, 16], "texture": "#frame"}
			}
		},
		{
			"from": [0, 0, 0],
			"to": [1, 8, 1],
			"faces": {
				"north": {"uv": [15, 8, 16, 16], "texture": "#frame", "cullface": "north"},
				"west": {"uv": [0, 8, 1, 16], "texture": "#frame", "cullface": "west"},
				"up": {"uv": [0, 0, 1, 1], "rotation": 180, "texture": "#frame"},
				"down": {"uv": [0, 15, 1, 16], "texture": "#frame", "cullface": "down"}
			}
		},
		{
			"name": "spar",
			"from": [1, 0, 0],
			"to": [15, 2, 1],
			"faces": {
				"north": {"uv": [1, 14, 15, 16], "texture": "#frame", "cullface": "north"},
				"south": {"uv": [1, 14, 15, 16], "texture": "#frame"},
				"up": {"uv": [1, 0, 15, 1], "texture": "#frame"},
				"down": {"uv": [1, 15, 15, 16], "texture": "#frame", "cullface": "down"}
			}
		},
		{
			"from": [15, 0, 0],
			"to": [16, 8, 1],
			"faces": {
				"north": {"uv": [0, 8, 1, 16], "texture": "#frame", "cullface": "north"},
				"east": {"uv": [15, 8, 16, 16], "texture": "#frame", "cullface": "east"},
				"up": {"uv": [15, 0, 16, 1], "rotation": 180, "texture": "#frame"},
				"down": {"uv": [15, 15, 16, 16], "texture": "#frame", "cullface": "down"}
			}
		},
		{
			"from": [15, 0, 15],
			"to": [16, 8, 16],
			"faces": {
				"east": {"uv": [0, 8, 1, 16], "texture": "#frame", "cullface": "east"},
				"south": {"uv": [15, 8, 16, 16], "texture": "#frame", "cullface": "south"},
				"up": {"uv": [15, 15, 16, 16], "rotation": 180, "texture": "#frame"},
				"down": {"uv": [15, 0, 16, 1], "texture": "#frame", "cullface": "down"}
			}
		},
		{
			"from": [15, 0, 1],
			"to": [16, 2, 15],
			"faces": {
				"east": {"uv": [1, 14, 15, 16], "texture": "#frame", "cullface": "east"},
				"west": {"uv": [1, 14, 15, 16], "texture": "#frame"},
				"up": {"uv": [15, 1, 16, 15], "texture": "#frame"},
				"down": {"uv": [15, 1, 16, 15], "texture": "#frame", "cullface": "down"}
			}
		},
		{
			"name": "spar",
			"from": [1, 0, 15],
			"to": [15, 2, 16],
			"faces": {
				"north": {"uv": [1, 14, 15, 16], "texture": "#frame"},
				"south": {"uv": [1, 14, 15, 16], "texture": "#frame", "cullface": "south"},
				"up": {"uv": [1, 15, 15, 16], "texture": "#frame"},
				"down": {"uv": [1, 0, 15, 1], "texture": "#frame", "cullface": "down"}
			}
		},
		{
			"from": [0, 0, 1],
			"to": [1, 2, 15],
			"faces": {
				"east": {"uv": [1, 14, 15, 16], "texture": "#frame"},
				"west": {"uv": [1, 14, 15, 16], "texture": "#frame", "cullface": "west"},
				"up": {"uv": [0, 1, 1, 15], "texture": "#frame"},
				"down": {"uv": [0, 1, 1, 15], "texture": "#frame", "cullface": "down"}
			}
		},
		{
			"from": [0, 0, 15],
			"to": [1, 8, 16],
			"faces": {
				"south": {"uv": [0, 8, 1, 16], "texture": "#frame", "cullface": "south"},
				"west": {"uv": [15, 8, 16, 16], "texture": "#frame", "cullface": "west"},
				"up": {"uv": [0, 15, 1, 16], "rotation": 180, "texture": "#frame"},
				"down": {"uv": [0, 0, 1, 1], "texture": "#frame", "cullface": "down"}
			}
		},
		{
			"from": [0, 6, 1],
			"to": [1, 8, 15],
			"faces": {
				"east": {"uv": [1, 8, 15, 10], "texture": "#frame"},
				"west": {"uv": [1, 8, 15, 10], "texture": "#frame", "cullface": "west"},
				"up": {"uv": [1, 3, 15, 4], "rotation": 90, "texture": "#frame"},
				"down": {"uv": [1, 11, 15, 12], "rotation": 90, "texture": "#frame"}
			}
		},
		{
			"name": "spar",
			"from": [1, 6, 15],
			"to": [15, 8, 16],
			"faces": {
				"north": {"uv": [1, 8, 15, 10], "texture": "#frame"},
				"south": {"uv": [1, 8, 15, 10], "texture": "#frame", "cullface": "south"},
				"up": {"uv": [1, 15, 15, 16], "texture": "#frame"},
				"down": {"uv": [1, 0, 15, 1], "texture": "#frame"}
			}
		},
		{
			"from": [15, 6, 1],
			"to": [16, 8, 15],
			"faces": {
				"east": {"uv": [1, 8, 15, 10], "texture": "#frame", "cullface": "east"},
				"west": {"uv": [1, 8, 15, 10], "texture": "#frame"},
				"up": {"uv": [1, 7, 15, 8], "rotation": 90, "texture": "#frame"},
				"down": {"uv": [1, 3, 15, 4], "rotation": 90, "texture": "#frame"}
			}
		}
	]
}