{
  "name": "alekiships:unfinished_sloop_dark_oak/hut_pool",
  "fallback": "minecraft:empty",
  "elements": [
    {
      "weight": 1,
      "element": {
        "location": "alekiships:unfinished_sloop_hut_dark_oak",
        "processors": "minecraft:empty",
        "projection": "rigid",
        "element_type": "minecraft:single_pool_element"
      }
    },
    {
      "element": {
        "element_type": "minecraft:empty_pool_element"
      },
      "weight": 10
    }
  ]
}