{
  "type": "minecraft:crafting_shapeless",
  "category": "misc",
  "ingredients": [
    {
      "item": "minecraft:iron_ingot"
    },
    {
      "item": "minecraft:paper"
    },
    {
      "item": "minecraft:gunpowder"
    }
  ],
  "result": {
    "item": "alekiships:cannonball"
  }
}