{
  "variants": {
    "facing=east,shape=inner_left": {
      "model": "alekiships:block/watercraft_frame/angled/inner",
      "y": 180
    },
    "facing=east,shape=inner_right": {
      "model": "alekiships:block/watercraft_frame/angled/inner",
      "y": 270
    },
    "facing=east,shape=outer_left": {
      "model": "alekiships:block/watercraft_frame/angled/outer"
    },
    "facing=east,shape=outer_right": {
      "model": "alekiships:block/watercraft_frame/angled/outer",
      "y": 90
    },
    "facing=east,shape=straight": {
      "model": "alekiships:block/watercraft_frame/angled/straight",
      "y": 270
    },
    "facing=north,shape=inner_left": {
      "model": "alekiships:block/watercraft_frame/angled/inner",
      "y": 90
    },
    "facing=north,shape=inner_right": {
      "model": "alekiships:block/watercraft_frame/angled/inner",
      "y": 180
    },
    "facing=north,shape=outer_left": {
      "model": "alekiships:block/watercraft_frame/angled/outer",
      "y": 270
    },
    "facing=north,shape=outer_right": {
      "model": "alekiships:block/watercraft_frame/angled/outer"
    },
    "facing=north,shape=straight": {
      "model": "alekiships:block/watercraft_frame/angled/straight",
      "y": 180
    },
    "facing=south,shape=inner_left": {
      "model": "alekiships:block/watercraft_frame/angled/inner",
      "y": 270
    },
    "facing=south,shape=inner_right": {
      "model": "alekiships:block/watercraft_frame/angled/inner"
    },
    "facing=south,shape=outer_left": {
      "model": "alekiships:block/watercraft_frame/angled/outer",
      "y": 90
    },
    "facing=south,shape=outer_right": {
      "model": "alekiships:block/watercraft_frame/angled/outer",
      "y": 180
    },
    "facing=south,shape=straight": {
      "model": "alekiships:block/watercraft_frame/angled/straight"
    },
    "facing=west,shape=inner_left": {
      "model": "alekiships:block/watercraft_frame/angled/inner"
    },
    "facing=west,shape=inner_right": {
      "model": "alekiships:block/watercraft_frame/angled/inner",
      "y": 90
    },
    "facing=west,shape=outer_left": {
      "model": "alekiships:block/watercraft_frame/angled/outer",
      "y": 180
    },
    "facing=west,shape=outer_right": {
      "model": "alekiships:block/watercraft_frame/angled/outer",
      "y": 270
    },
    "facing=west,shape=straight": {
      "model": "alekiships:block/watercraft_frame/angled/straight",
      "y": 90
    }
  }
}