{
  "type": "minecraft:jigsaw",
  "start_pool": "alekiships:unfinished_sloop_dark_oak/start_pool",
  "size": 3,
  "max_distance_from_center": 80,
  "biomes": "#alekiships:has_structure/unfinished_sloop",
  "step": "surface_structures",
  "start_height": {
    "absolute": 0
  },
  "project_start_to_heightmap": "WORLD_SURFACE_WG",
  "use_expansion_hack": false,
  "terrain_adaptation": "beard_thin",
  "spawn_overrides": {}
}